Supervised Machine Learning–Linear Regression
…
The tidy() function automatically creates a tibble of estimated model parameters. Since sqft_living has a positive estimated parameter, the selling price of homes increases with the square footage. Conversely, since home_age has a negative estimated parameter, older homes tend to have lower selling prices.

Predicting home selling prices

After fitting a model using the training data, the next step is to use it to make predictions on the test dataset. The test dataset acts as a new source of data for the model and will allow you to evaluate how well it performs. Before you can evaluate model performance, you must add your predictions to the test dataset.

# Predict selling_price
home_predictions <- predict(lm_fit, new_data = home_test)

# View predicted selling prices
home_predictions

# A tibble: 450 × 1
     .pred
     <dbl>
 1 473202.
 2 409228.
 3 471652.
 4 528959.
 5 448132.
 6 527421.
 7 425610.
 8 407190.
 9 404617.
10 416900.
# ℹ 440 more rows

# Combine test data with predictions
home_test_results <- home_test %>% 
  select(selling_price, home_age, sqft_living) %>% 
  bind_cols(home_predictions)

# View results
home_test_results

# A tibble: 450 × 4
   selling_price home_age sqft_living   .pred
           <dbl>    <dbl>       <dbl>   <dbl>
 1        380000       24        2130 473202.
 2        355000       19        1430 409228.
 3        425000       11        1920 471652.
 4        535000        3        2360 528959.
 5        552321       29        1960 448132.
 6        475000        0        2300 527421.
 7        381000       25        1680 425610.
 8        452000       27        1530 407190.
 9        398000       14        1310 404617.
10        387000       15        1445 416900.
# ℹ 440 more rows

Model performance metrics

Evaluating model results is an important step in the modeling process. Model evaluation should be done on the test dataset in order to see how well a model will generalize to new datasets.

# Print home_test_results
home_test_results

# A tibble: 450 × 4
   selling_price home_age sqft_living   .pred
           <dbl>    <dbl>       <dbl>   <dbl>
 1        380000       24        2130 473202.
 2        355000       19        1430 409228.
 3        425000       11        1920 471652.
 4        535000        3        2360 528959.
 5        552321       29        1960 448132.
 6        475000        0        2300 527421.
 7        381000       25        1680 425610.
 8        452000       27        1530 407190.
 9        398000       14        1310 404617.
10        387000       15        1445 416900.
# ℹ 440 more rows
…
# Define a linear regression model
linear_model <- linear_reg() %>% 
  set_engine("lm") %>% 
  set_mode("regression")

# Train linear_model with last_fit() using all available predictors
linear_fit <- linear_model %>% 
  last_fit(selling_price ~ ., split = home_split)

# Collect predictions and view results
predictions_df <- linear_fit %>% collect_predictions()
predictions_df

# A tibble: 450 × 5
     .pred id                .row selling_price .config             
     <dbl> <chr>            <int>         <dbl> <chr>               
 1 415815. train/test split     5        380000 Preprocessor1_Model1
 2 401184. train/test split     7        355000 Preprocessor1_Model1
 3 440303. train/test split     9        425000 Preprocessor1_Model1
 4 477957. train/test split    10        535000 Preprocessor1_Model1
 5 467631. train/test split    15        552321 Preprocessor1_Model1
 6 466606. train/test split    16        475000 Preprocessor1_Model1
 7 392372. train/test split    18        381000 Preprocessor1_Model1
 8 409261. train/test split    23        452000 Preprocessor1_Model1
 9 382390. train/test split    24        398000 Preprocessor1_Model1
10 406904. train/test split    26        387000 Preprocessor1_Model1
# ℹ 440 more rows
…
